…
btw13_data <- btw13 %>% 
  left_join(strukturdaten13) %>% 
  select(-kreis, -wahlkreis_name) %>% 
  left_join(district_names)

tidytemplate::save_it(btw13_data)

btw13_data
```

    ## # A tibble: 299 x 15
    ##    wahlkreis_nr part_of valid perc_afd perc_npd perc_spd perc_linke
    ##           <int> <chr>   <chr>    <dbl>    <dbl>    <dbl>      <dbl>
    ##  1            1 1       1606~     4.09    0.578     32.6       5.66
    ##  2            2 1       1300~     3.84    0.564     29.7       4.41
    ##  3            3 1       1249~     4.40    0.831     30.0       5.03
    ##  4            4 1       1479~     4.39    0.577     31.5       4.36
    ##  5            5 1       1449~     3.71    0.553     34.7       6.91
    ##  6            6 1       1255~     4.70    0.923     32.7       4.77
    ##  7            7 1       1773~     4.78    0.744     31.2       5.02
    ##  8            8 1       1815~     4.97    0.720     30.1       5.02
    ##  9            9 1       1304~     4.96    0.565     31.5       4.34
    ## 10           10 1       1814~     5.63    0.759     29.7       4.94
    ## # ... with 289 more rows, and 8 more variables: perc_fdp <dbl>,
    ## #   perc_grun <dbl>, perc_cdu_csu <dbl>, wanderung <dbl>,
    ## #   unemployment <dbl>, sgbii <dbl>, land <chr>, kreis <chr>
…
    ## Non-numeric variables.. converting
    ## Non-numeric variables.. converting
    ## Non-numeric variables.. converting
    ## Non-numeric variables.. converting
    ## Non-numeric variables.. converting
    ## Non-numeric variables.. converting
    ## Non-numeric variables.. converting

``` r
btw17
```

    ## # A tibble: 299 x 11
    ##    wahlkreis_nr kreis part_of valid perc_afd perc_npd perc_spd perc_linke
    ##           <int> <chr>   <int> <chr>    <dbl>    <dbl>    <dbl>      <dbl>
    ##  1            1 Flen~       1 1704~     6.84    0.205     23.7       8.21
    ##  2            2 Nord~       1 1380~     6.54    0.218     22.5       6.22
    ##  3            3 Stei~       1 1308~     8.54    0.360     22.7       6.67
    ##  4            4 Rend~       1 1562~     7.41    0.196     22.9       6.37
    ##  5            5 Kiel        1 1520~     6.91    0.164     23.8      10.2 
    ##  6            6 Plön~       1 1305~     8.55    0.367     23.8       6.52
    ##  7            7 Pinn~       1 1863~     8.57    0.239     22.9       7.03
    ##  8            8 Sege~       1 1919~     8.94    0.241     22.4       6.90
    ##  9            9 Osth~       1 1372~     8.58    0.219     24.6       6.05
    ## 10           10 Herz~       1 1919~     9.79    0.256     22.3       6.50
    ## # ... with 289 more rows, and 3 more variables: perc_fdp <dbl>,
    ## #   perc_grun <dbl>, perc_cdu_csu <dbl>
…
btw17_data <- btw17 %>% 
  left_join(strukturdaten17) %>% 
  select(-kreis, -wahlkreis_name) %>% 
  left_join(district_names)

tidytemplate::save_it(btw17_data)

btw17_data
```

    ## # A tibble: 299 x 15
    ##    wahlkreis_nr part_of valid perc_afd perc_npd perc_spd perc_linke
    ##           <int>   <int> <chr>    <dbl>    <dbl>    <dbl>      <dbl>
    ##  1            1       1 1704~     6.84    0.205     23.7       8.21
    ##  2            2       1 1380~     6.54    0.218     22.5       6.22
    ##  3            3       1 1308~     8.54    0.360     22.7       6.67
    ##  4            4       1 1562~     7.41    0.196     22.9       6.37
    ##  5            5       1 1520~     6.91    0.164     23.8      10.2 
    ##  6            6       1 1305~     8.55    0.367     23.8       6.52
    ##  7            7       1 1863~     8.57    0.239     22.9       7.03
    ##  8            8       1 1919~     8.94    0.241     22.4       6.90
    ##  9            9       1 1372~     8.58    0.219     24.6       6.05
    ## 10           10       1 1919~     9.79    0.256     22.3       6.50
    ## # ... with 289 more rows, and 8 more variables: perc_fdp <dbl>,
    ## #   perc_grun <dbl>, perc_cdu_csu <dbl>, unemployment <dbl>,
    ## #   wanderung <dbl>, sgbii <dbl>, land <chr>, kreis <chr>
…
tidytemplate::save_it(btw_data)

btw_data
```

    ## # A tibble: 598 x 17
    ##    wahlkreis_nr part_of valid perc_afd perc_npd perc_spd perc_linke
    ##           <int> <chr>   <chr>    <dbl>    <dbl>    <dbl>      <dbl>
    ##  1            1 1       1704~     6.84    0.205     23.7       8.21
    ##  2            2 1       1380~     6.54    0.218     22.5       6.22
    ##  3            3 1       1308~     8.54    0.360     22.7       6.67
    ##  4            4 1       1562~     7.41    0.196     22.9       6.37
    ##  5            5 1       1520~     6.91    0.164     23.8      10.2 
    ##  6            6 1       1305~     8.55    0.367     23.8       6.52
    ##  7            7 1       1863~     8.57    0.239     22.9       7.03
    ##  8            8 1       1919~     8.94    0.241     22.4       6.90
    ##  9            9 1       1372~     8.58    0.219     24.6       6.05
    ## 10           10 1       1919~     9.79    0.256     22.3       6.50
    ## # ... with 588 more rows, and 10 more variables: perc_fdp <dbl>,
    ## #   perc_grun <dbl>, perc_cdu_csu <dbl>, unemployment <dbl>,
    ## #   wanderung <dbl>, sgbii <dbl>, land <chr>, kreis <chr>, year <chr>,
    ## #   east_west <chr>
…
btw_lagged_all
```

    ## # A tibble: 598 x 8
    ##    `AfD 2017` `SPD 2013` `CDU/CSU 2013` `Die Linke 2013` `Die Grünen 201~
    ##         <dbl>      <dbl>          <dbl>            <dbl>            <dbl>
    ##  1       6.84       32.6           38.2             5.66             9.79
    ##  2       6.84       32.6           38.2             5.66             9.79
    ##  3       6.54       29.7           43.4             4.41             8.11
    ##  4       6.54       29.7           43.4             4.41             8.11
    ##  5       8.54       30.0           41.9             5.03             7.59
    ##  6       8.54       30.0           41.9             5.03             7.59
    ##  7       7.41       31.5           40.8             4.36             9.26
    ##  8       7.41       31.5           40.8             4.36             9.26
    ##  9       6.91       34.7           30.3             6.91            14.1 
    ## 10       6.91       34.7           30.3             6.91            14.1 
    ## # ... with 588 more rows, and 3 more variables: `FDP 2013` <dbl>, `NPD
    ## #   2013` <dbl>, east_west <chr>
…
    ## Non-numeric variables.. converting
    ## Non-numeric variables.. converting
    ## Non-numeric variables.. converting
    ## Non-numeric variables.. converting
    ## Non-numeric variables.. converting
    ## Non-numeric variables.. converting

``` r
tidytemplate::save_it(btw09_data)

btw09_data
```

    ## # A tibble: 299 x 11
    ##    wahlkreis_nr kreis part_of valid perc_npd perc_spd perc_linke perc_fdp
    ##           <int> <chr> <chr>   <chr>    <dbl>    <dbl>      <dbl>    <dbl>
    ##  1            1 Flen~ 1       1591~    0.779     26.3       8.47     15.2
    ##  2            2 Nord~ 1       1314~    0.857     24.5       6.72     17.2
    ##  3            3 "Ste~ 1       1252~    1.21      25.0       7.83     17.5
    ##  4            4 "Ren~ 1       1469~    0.830     26.7       6.68     15.9
    ##  5            5 Kiel  1       1432~    0.890     29.6       9.38     13.4
    ##  6            6 "Pl\~ 1       1249~    1.05      28.5       7.15     15.8
    ##  7            7 Pinn~ 1       1729~    1.01      26.3       7.75     16.6
    ##  8            8 Sege~ 1       1769~    0.953     25.1       8.07     17.7
    ##  9            9 Osth~ 1       1288~    0.925     28.2       7.25     17.6
    ## 10           10 "Her~ 1       1783~    1.19      25.4       7.77     17.2
    ## # ... with 289 more rows, and 3 more variables: perc_grun <dbl>,
    ## #   perc_cdu_csu <dbl>, land <chr>
…
    ## Non-numeric variables.. converting
    ## Non-numeric variables.. converting
    ## Non-numeric variables.. converting
    ## Non-numeric variables.. converting
    ## Non-numeric variables.. converting
    ## Non-numeric variables.. converting

``` r
tidytemplate::save_it(btw05_data)

btw05_data
```

    ## # A tibble: 299 x 11
    ##    wahlkreis_nr kreis part_of valid perc_npd perc_spd perc_linke perc_fdp
    ##           <int> <chr> <chr>   <chr>    <dbl>    <dbl>      <dbl>    <dbl>
    ##  1            1 Flen~ 1       1692~    0.803     39.1       4.80     9.69
    ##  2            2 Nord~ 1       1417~    0.840     36.2       3.86    10.1 
    ##  3            3 "Ste~ 1       1369~    1.22      36.3       4.59    10.7 
    ##  4            4 "Ren~ 1       1567~    0.929     37.6       4.16     9.89
    ##  5            5 Kiel  1       1489~    0.924     41.5       5.97     8.85
    ##  6            6 "Pl\~ 1       1348~    1.13      39.5       4.46     9.60
    ##  7            7 Pinn~ 1       1833~    0.966     37.4       4.39    10.3 
    ##  8            8 Sege~ 1       1865~    0.915     36.6       4.38    11.3 
    ##  9            9 Osth~ 1       1391~    0.970     38.8       4.16    10.4 
    ## 10           10 "Her~ 1       1878~    1.23      35.8       4.37    11.2 
    ## # ... with 289 more rows, and 3 more variables: perc_grun <dbl>,
    ## #   perc_cdu_csu <dbl>, land <chr>
…
    ## Non-numeric variables.. converting
    ## Non-numeric variables.. converting
    ## Non-numeric variables.. converting
    ## Non-numeric variables.. converting
    ## Non-numeric variables.. converting
    ## Non-numeric variables.. converting

``` r
tidytemplate::save_it(btw02_data)

btw02_data
```

    ## # A tibble: 299 x 11
    ##    wahlkreis_nr kreis part_of valid perc_npd perc_spd perc_linke perc_fdp
    ##           <int> <chr> <chr>   <chr>    <dbl>    <dbl>      <dbl>    <dbl>
    ##  1            1 Flen~ 1       1702~    0.190     44.0      1.29      7.45
    ##  2            2 Nord~ 1       1429~    0.223     42.4      1.11      8.20
    ##  3            3 "Ste~ 1       1387~    0.315     41.2      1.28      8.83
    ##  4            4 "Ren~ 1       1577~    0.237     42.6      1.17      8.03
    ##  5            5 Kiel  1       1512~    0.365     44.3      2.15      8.28
    ##  6            6 "Pl\~ 1       1375~    0.302     44.6      1.22      7.67
    ##  7            7 Pinn~ 1       1857~    0.215     41.6      1.19      8.30
    ##  8            8 Sege~ 1       1863~    0.228     41.2      1.27      8.69
    ##  9            9 Osth~ 1       1400~    0.278     44.0      0.954     7.83
    ## 10           10 "Her~ 1       1887~    0.310     40.0      1.15      8.17
    ## # ... with 289 more rows, and 3 more variables: perc_grun <dbl>,
    ## #   perc_cdu_csu <dbl>, land <chr>
…
    ## Non-numeric variables.. converting
    ## Non-numeric variables.. converting
    ## Non-numeric variables.. converting
    ## Non-numeric variables.. converting
    ## Non-numeric variables.. converting
    ## Non-numeric variables.. converting

``` r
tidytemplate::save_it(btw98_data)

btw98_data
```

    ## # A tibble: 328 x 11
    ##    wahlkreis_nr kreis part_of valid perc_npd perc_spd perc_linke perc_fdp
    ##           <int> <chr> <chr>   <chr>    <dbl>    <dbl>      <dbl>    <dbl>
    ##  1            1 Flen~ 1       1711~   0.0912     47.2       1.33     6.57
    ##  2            2 Nord~ 1       1365~   0.174      43.4       1.12     7.82
    ##  3            3 "Ste~ 1       1330~   0.169      45.5       1.16     7.36
    ##  4            4 "Ren~ 1       1708~   0.146      44.5       1.28     8.18
    ##  5            5 Kiel  1       1429~   0.149      49.2       2.41     6.87
    ##  6            6 "Pl\~ 1       1315~   0.160      47.7       1.47     6.69
    ##  7            7 Pinn~ 1       1837~   0.144      44.9       1.47     8.27
    ##  8            8 Sege~ 1       1950~   0.132      43.6       1.49     8.50
    ##  9            9 Osth~ 1       1392~   0.141      44.9       1.17     7.45
    ## 10           10 "Her~ 1       2041~   0.238      42.8       1.46     8.35
    ## # ... with 318 more rows, and 3 more variables: perc_grun <dbl>,
    ## #   perc_cdu_csu <dbl>, land <chr>
…
